^E:\UNITBV\STRUCTURI DE DATE\TEMA2\7\7\SOURCE.CPP
E:\UNITBV\STRUCTURI DE DATE\TEMA2\7\7\DEBUG\VC141.PDB
E:\UNITBV\STRUCTURI DE DATE\TEMA2\7\7\DEBUG\VC141.IDB
E:\UNITBV\STRUCTURI DE DATE\TEMA2\7\7\DEBUG\SOURCE.OBJ
